{
  "Routes": [
    {
      "DownstreamPathTemplate": "/api/{version}/{everything}",
      "DownstreamScheme": "http",
      "DownstreamHostAndPorts": [
        {
          "Host": "responsavel.api",
          "Port": 80
        }
      ],
      "UpstreamPathTemplate": "/api/{version}/r/{everything}",
      "UpstreamHttpMethod": [ "Get", "Put" ],
      "SwaggerKey": "api-responsaveis"
    },
    {
      "DownstreamPathTemplate": "/api/{version}/{everything}",
      "DownstreamScheme": "http",
      "DownstreamHostAndPorts": [
        {
          "Host": "entrega.api",
          "Port": 80
        }
      ],
      "UpstreamPathTemplate": "/api/{version}/e/{everything}",
      "UpstreamHttpMethod": [ "Get", "Post" ],
      "SwaggerKey": "api-entregas"
    },
    {
      "DownstreamPathTemplate": "/api/{version}/{everything}",
      "DownstreamScheme": "http",
      "DownstreamHostAndPorts": [
        {
          "Host": "transporte.api",
          "Port": 80
        }
      ],
      "UpstreamPathTemplate": "/api/{version}/t/{everything}",
      "UpstreamHttpMethod": [ "Get", "Put" ],
      "SwaggerKey": "api-transportes"
    }
  ],
  "SwaggerEndPoints": [
    {
      "Key": "api-entregas",
      "Config": [
        {
          "Name": "API de entregas",
          "Version": "v1",
          "Url": "http://entrega.api/swagger/v1/swagger.json"
        }
      ]
    },
    {
      "Key": "api-responsaveis",
      "Config": [
        {
          "Name": "API de responsaveis",
          "Version": "v1",
          "Url": "http://responsavel.api/swagger/v1/swagger.json"
        }
      ]
    },
    {
      "Key": "api-transportes",
      "Config": [
        {
          "Name": "API de transportes",
          "Version": "v1",
          "Url": "http://transporte.api/swagger/v1/swagger.json"
        }
      ]
    }
  ],
  "GlobalConfiguration": {}
}